{
  "reservation": {
    "restaurant_id": 1,
    "restaurant_name": "Italian Delight",
    "selected_slot": {
      "slot_id": 101,
      "start_time": "2024-01-28T18:00:00",
      "end_time": "2024-01-28T20:00:00",
      "capacity": 10
    },
    "user_details": {
      "name": "John Doe",
      "contact_number": "+123456789",
      "num_guests": 2
    }
  }
}
