{
  "restaurants": [
    {
      "id": 1,
      "name": "Italian Delight",
      "image": "https://source.unsplash.com/photo-of-pub-set-in-room-during-daytime-poI7DelFiVA",
      "location": "City A",
      "cuisine_type": "Italian",
      "description": "Authentic Italian cuisine with a modern twist.",
      "slots": [
        {
          "slot_id": 101,
          "start_time": "2024-01-28T18:00:00",
          "end_time": "2024-01-28T20:00:00",
          "capacity": 10,
          "available_capacity": 5
        },
        {
          "slot_id": 102,
          "start_time": "2024-01-28T20:30:00",
          "end_time": "2024-01-28T22:00:00",
          "capacity": 15,
          "available_capacity": 10
        }
      ]
    },
    {
      "id": 2,
      "name": "Sushi Paradise",
      "image": "https://source.unsplash.com/rectangular-beige-wooden-tables-and-chair-Ciqxn7FE4vE",
      "location": "City B",
      "cuisine_type": "Japanese",
      "description": "Experience the art of sushi making.",
      "slots": [
        {
          "slot_id": 201,
          "start_time": "2024-01-28T19:00:00",
          "end_time": "2024-01-28T21:00:00",
          "capacity": 12,
          "available_capacity": 8
        },
        {
          "slot_id": 202,
          "start_time": "2024-01-28T21:30:00",
          "end_time": "2024-01-28T23:00:00",
          "capacity": 18,
          "available_capacity": 12
        }
      ]
    },
    {
      "id": 3,
      "name": "Burger Bliss",
      "image": "https://source.unsplash.com/brown-and-gray-concrete-store-nmpW_WwwVSc",
      "location": "City C",
      "cuisine_type": "American",
      "description": "Indulge in mouthwatering burgers.",
      "slots": [
        {
          "slot_id": 301,
          "start_time": "2024-01-28T17:30:00",
          "end_time": "2024-01-28T19:30:00",
          "capacity": 20,
          "available_capacity": 15
        },
        {
          "slot_id": 302,
          "start_time": "2024-01-28T20:00:00",
          "end_time": "2024-01-28T22:00:00",
          "capacity": 25,
          "available_capacity": 20
        }
      ]
    },
    {
      "id": 4,
      "name": "Spice Garden",
      "image": "https://source.unsplash.com/bottles-in-display-cabinet-B3Jt_d5E2Lk",
      "location": "City A",
      "cuisine_type": "Indian",
      "description": "Explore the richness of Indian spices.",
      "slots": [
        {
          "slot_id": 401,
          "start_time": "2024-01-28T18:30:00",
          "end_time": "2024-01-28T20:30:00",
          "capacity": 15,
          "available_capacity": 10
        },
        {
          "slot_id": 402,
          "start_time": "2024-01-28T21:00:00",
          "end_time": "2024-01-28T23:00:00",
          "capacity": 20,
          "available_capacity": 18
        }
      ]
    },
    {
      "id": 5,
      "name": "Mediterranean Flavors",
      "image": "https://source.unsplash.com/rectangular-beige-wooden-tables-and-chair-Ciqxn7FE4vE",
      "location": "City B",
      "cuisine_type": "Mediterranean",
      "description": "Savor the taste of the Mediterranean.",
      "slots": [
        {
          "slot_id": 501,
          "start_time": "2024-01-28T19:30:00",
          "end_time": "2024-01-28T21:30:00",
          "capacity": 12,
          "available_capacity": 8
        },
        {
          "slot_id": 502,
          "start_time": "2024-01-28T22:00:00",
          "end_time": "2024-01-29T00:00:00",
          "capacity": 18,
          "available_capacity": 12
        }
      ]
    }
  ]
}
