{
  "slots": [
    {
      "id": 1,
      "restaurant_id": 1,
      "start_time": "10:00 AM",
      "end_time": "12:00 PM",
      "capacity": 20,
      "created_at": "2024-01-27T10:30:00Z",
      "updated_at": "2024-01-27T11:45:00Z"
    },
    {
      "id": 2,
      "restaurant_id": 1,
      "start_time": "01:00 PM",
      "end_time": "03:00 PM",
      "capacity": 15,
      "created_at": "2024-01-27T11:00:00Z",
      "updated_at": "2024-01-27T12:15:00Z"
    },
    {
      "id": 3,
      "restaurant_id": 2,
      "start_time": "11:30 AM",
      "end_time": "01:30 PM",
      "capacity": 18,
      "created_at": "2024-01-27T11:30:00Z",
      "updated_at": "2024-01-27T12:45:00Z"
    },
    {
      "id": 4,
      "restaurant_id": 2,
      "start_time": "03:30 PM",
      "end_time": "05:30 PM",
      "capacity": 22,
      "created_at": "2024-01-27T12:00:00Z",
      "updated_at": "2024-01-27T13:15:00Z"
    },
    {
      "id": 5,
      "restaurant_id": 3,
      "start_time": "12:30 PM",
      "end_time": "02:30 PM",
      "capacity": 25,
      "created_at": "2024-01-27T12:30:00Z",
      "updated_at": "2024-01-27T13:30:00Z"
    }
  ]
}
